{
    "defaultSeverity": "error",
    "extends": ["tslint:latest", "tslint-react", "tslint-config-prettier"],
    "jsRules": {},
    "rules": {
        "member-access": [false],
        "ordered-imports": [false],
        "no-console": [false],
        "no-implicit-dependencies": [false],
        "object-literal-sort-keys": [false],
        "no-submodule-imports": [false]
    },
    "rulesDirectory": []
}